M48
;Layer_Color=9474304
;FILE_FORMAT=2:5
INCH,LZ
;TYPE=PLATED
T1F00S00C0.01968
T2F00S00C0.02756
T3F00S00C0.03000
T4F00S00C0.03937
T5F00S00C0.04000
T6F00S00C0.07283
T7F00S00C0.07480
T8F00S00C0.12000
;TYPE=NON_PLATED
T9F00S00C0.13386
T10F00S00C0.19685
%
T01
X00356Y00891
X006126Y0077559
X0072445Y0078366
X0070709Y0074016
X0071496Y0065876
X0078553Y0060424
X0077945Y0052366
X0086281Y0052475
X0083124Y0048514
X009947Y0048425
X010047Y0061537
X0096496Y006063
X009835Y0064751
X0090394Y0065945
X0086063Y0069685
X0088945Y0072866
X0090945Y0080366
X009Y0084252
X0092454Y0087857
X009Y0100787
X0080945Y010315
Y0107366
X0088445Y0118366
X0092945
X0100945Y0124366
X0111445Y0121866
X0120757Y0125152
X0126385Y0125058
X0130445Y0124866
X0134869Y0125019
X0139249Y0125112
X0139445Y0117366
X0139945Y0104866
X0143945
X0152445Y0105366
X0167445Y0104866
Y0100866
X0168445Y0124366
X0168148Y0135069
X016807Y0151391
X0145478Y0150211
X0145371Y0154059
X014584Y0139491
X0152407Y0124828
X0134445Y0104866
X0130445Y0105366
X0126634Y0104822
X0121945Y0108366
X0118945Y0110866
X0110669Y0106102
X0103445Y0096366
X0112945Y0086366
X0118945Y0089366
X012792Y0088366
X0125166Y0085298
X0126945Y0072366
X0125445Y0068366
X0130445Y0064651
X0134445Y0066314
X0138945Y0067366
X0142927Y0068832
X0144689Y0072255
X0145047Y0077722
X0155421Y0080248
X01572Y00657
X0160611Y0068956
X01633Y00615
X01618Y00571
X0173445Y0053866
X0141617Y0056521
X0137945Y0055366
X0138945Y0050366
X0135945Y0047866
X0143445Y0048866
X0147449Y0034871
X0152994Y0036369
X0152445Y0030366
X0138945Y0027221
X0130945
X0117Y00215
X011879Y0037061
X0122185Y0042551
X0121445Y0048301
X0112945Y0045866
X0110945Y0061366
X0112445Y0068366
X0114213Y0072441
X0120118Y0072244
X0117445Y0066366
X0108307Y0073228
X0077795Y0083071
X00546Y00708
X0056142Y0065748
X0065308Y0054707
X0065197Y0048819
X0098945Y0029366
X0107445Y0030866
X0137945Y0092866
X0146445Y0092366
X0125445Y0135866
X0087445
X0086945Y0140866
X0084445Y0143866
X0069445Y0118366
X0052992Y0126772
X0090945Y0169366
Y0211366
X0090445Y0215866
X0090945Y0228866
X0141945Y0209866
X0140149Y0169416
X0146447Y0167294
X0145945Y0162866
X0142362Y0161416
X0145379Y0158167
X0156155Y01625
X0169945Y0157866
X0173792Y0160957
X0188031Y0172047
X0187945Y0175866
Y0179866
X01955Y02305
T02
X00222Y0060001
Y00663
X0026924Y006945
Y006315
Y0056851
T03
X00384Y01418
Y01487
X00386Y01559
X0045945Y0155866
Y0148866
Y0141866
X0053Y0142
X0052945Y0148866
Y0155866
X0059945
Y0148866
Y0141866
X0098945Y0152366
X0104945
Y0158366
Y0164366
X0098945
Y0158366
X0100945Y0213866
X0107945
Y0220866
Y0227866
X0100945
Y0220866
X0115945
Y0213866
X0123945
Y0220866
Y0227866
X0115945
X0151945Y0228866
Y0221866
Y0214866
X0159945
X0166945
X0173945
Y0221866
Y0228866
X0166945
X0159945
Y0221866
X0166945
X0070945Y0219866
Y0212866
X0063945
Y0219866
X0056945
Y0212866
X0049945
Y0219866
Y0227866
X0056945
X0063945
X0070945
T04
X00329Y0012
Y0022
Y0032
X00429
Y0022
Y0012
X0108Y00072
Y00172
X01316Y00173
Y00073
X01425
Y00173
X01536
Y00073
X01917Y00361
Y00461
Y00561
Y00661
Y00761
Y00914
Y01014
Y01114
Y01214
Y01314
Y01414
Y01514
T05
X0158945Y0033866
X0168945
X0178945
T06
X0056748Y0268039
X0074209
Y02855
X0056748
Y0302961
X0074209
X0098343
X0115803
X0133264
Y02855
Y0268039
X0115803
X0098343
Y02855
X0115803
X0157398
Y0268039
X0174858
X0192319
Y02855
Y0302961
X0174858
X0157398
X0174858Y02855
X0039287
Y0268039
Y0302961
T07
X0007042Y004878
Y0077521
T08
X0073Y00118
X01815
X02125Y028
X00195
T09
X00082Y0095676
Y01267
T10
X0216Y01838
Y0244
X00159
Y01838
M30
